{
  "name": "cleiton",
  "version": "1.0.0",
  "description": "Curso de Cypress basico",
  "main": "index.js",
  "scripts": {
    "test": "cypress run"
  },
  "keywords": [
    "cypress",
    "test",
    "automation",
    "e2e"
  ],
  "author": "Cleiton Lima",
  "license": "MIT",
  "dependencies": {
    "cypress": "^9.3.1"
  }
}
